…
<img src="man/figures/README-subimperialismo-1.png" width="100%" />

Por exemplo as fontes mais comuns são:

``` r
library(stringr)
#> Warning: package 'stringr' was built under R version 3.5.2
textos_marini %>% 
  mutate(fonte = str_remove(fonte, "[,\\.].+")) %>% 
  count(fonte, sort = TRUE)
#> # A tibble: 54 x 2
#>    fonte                                    n
#>    <chr>                                <int>
#>  1 Archivo de Ruy Mauro Marini            136
#>  2 El reformismo y la contrarrevolución    28
#>  3 El Sol de México                        26
#>  4 Correo de la Resistencia                20
#>  5 Excélsior                               16
#>  6 Ruy Mauro Marini                        12
#>  7 Punto Final Internacional                7
#>  8 Cuadernos Políticos n                    6
#>  9 El Universal                             4
#> 10 Subdesarrollo y Revolución               4
#> # … with 44 more rows
```
…
